MYC234_PIFtargets
…
## Warning: Missing column names filled in: 'X1' [1]

## Warning: Missing column names filled in: 'X1' [1]

## Warning: Missing column names filled in: 'X1' [1]

## Warning: Missing column names filled in: 'X1' [1]

## Warning: Missing column names filled in: 'X1' [1]

names(DEG.list)<-gsub(".csv","",DEG.objs)
DEG.list

## $DEgenes.Col.1h.rH
## # A tibble: 151 x 9
##       X1 gene_id   logFC logCPM    LR   PValue      FDR description   name 
##    <dbl> <chr>     <dbl>  <dbl> <dbl>    <dbl>    <dbl> <chr>         <chr>
##  1     1 AT3G154 -1.40    5.34  87.1 1.01e-20 1.75e-16 Aluminium in <NA> 
##  2     2 AT1G809 -1.13    4.75  61.7 3.95e-15 3.42e-11 Chaperone Dn AtJ8
##  3     3 AT5G202 -1.48    4.87  60.8 6.17e-15 3.56e-11 Raffinose sy DIN1
##  4     4 AT4G376 -2.32    2.56  60.0 9.45e-15 3.87e-11 BTB and TAZ  BT5  
##  5     5 AT2G158 -0.947   6.05  59.7 1.12e-14 3.87e-11 maternal eff CBP1
##  6     6 AT2G076  4.20    3.16  58.0 2.64e-14 7.64e-11 Cytochrome c <NA> 
##  7     7 AT4G398  0.892   6.23  51.6 6.75e-13 1.67e- 9 myo-inositol ATIP
##  8     8 AT3G255  6.69    1.09  47.7 4.86e-12 1.05e- 8 Adenosylmeth SAMD
##  9     9 AT1G050 -6.92    1.25  47.2 6.31e-12 1.14e- 8 dentin sialo <NA> 
## 10    10 AT3G100 -1.00    6.36  47.1 6.59e-12 1.14e- 8 unknown prot <NA> 
## #  with 141 more rows
## 
## $DEgenes.Col.49h.rH
## # A tibble: 196 x 9
##       X1 gene_id   logFC logCPM    LR   PValue      FDR description   name 
##    <dbl> <chr>     <dbl>  <dbl> <dbl>    <dbl>    <dbl> <chr>         <chr>
##  1     1 AT2G106 -4.80    2.30  89.8 2.66e-21 4.61e-17 transposable <NA> 
##  2     2 AT5G139  0.961   6.60  51.8 6.03e-13 5.23e- 9 Chalcone and ATCH
##  3     3 AT3G154 -0.950   5.31  43.9 3.51e-11 2.03e- 7 Aluminium in <NA> 
##  4     4 AT1G757  1.60    3.42  40.4 2.08e-10 9.01e- 7 GAST1 protei GASA1
##  5     5 AT1G268 -1.16    4.08  38.5 5.59e-10 1.94e- 6 RING/U-box s MPSR1
##  6     6 ATCG002 -0.885   7.91  36.9 1.26e- 9 3.65e- 6 photosystem  PSBD 
##  7     7 AT5G541 -1.27    3.63  36.4 1.58e- 9 3.90e- 6 protochlorop PORA 
##  8     8 AT5G428  1.68    3.65  35.6 2.41e- 9 5.23e- 6 dihydroflavo DFR;
##  9     9 AT5G523 -0.775   6.58  34.2 4.91e- 9 9.45e- 6 low-temperat COR7
## 10    10 AT2G425 -0.932   6.89  32.6 1.16e- 8 1.86e- 5 cold regulat COR1
## #  with 186 more rows
## 
## $DEgenes.myc234.1h.rCol.rH
## # A tibble: 518 x 10
##       X1 gene_id logFC.gtmyc234 logFC.gtmyc234. logCPM    LR    PValue
##    <dbl> <chr>            <dbl>            <dbl>  <dbl> <dbl>     <dbl>
##  1     1 AT3G01         -10.2            1.58     6.74 3576. 0.       
##  2     2 AT4G31          -5.32          -1.47     4.68  732. 1.36e-159
##  3     3 AT1G16          -6.48           0.0320   6.06  604. 6.61e-132
##  4     4 AT2G30          -3.27          -0.153    8.29  585. 9.95e-128
##  5     5 AT3G19          -6.71           0.480    5.49  559. 3.40e-122
##  6     6 AT3G02          -6.24          -0.813    4.88  528. 1.73e-115
##  7     7 AT3G58          -5.35          -0.883    5.03  488. 8.73e-107
##  8     8 AT5G14          -4.21           0.161    6.08  454. 2.63e- 99
##  9     9 AT4G39          -5.15          -0.199    4.76  424. 9.44e- 93
## 10    10 AT2G43          -4.98          -0.443    6.16  418. 1.98e- 91
## #  with 508 more rows, and 3 more variables: FDR <dbl>,
## #   description <chr>, name <chr>
## 
## $DEgenes.myc234.1h.rH
## # A tibble: 75 x 9
##       X1 gene_id   logFC logCPM    LR   PValue      FDR description   name 
##    <dbl> <chr>     <dbl>  <dbl> <dbl>    <dbl>    <dbl> <chr>         <chr>
##  1     1 AT3G154 -1.19   5.06   76.4 2.30e-18 3.99e-14 Aluminium in <NA> 
##  2     2 AT1G233 -0.972  6.68   72.4 1.72e-17 1.49e-13 Kelch repeat KFB  
##  3     3 AT5G493 -0.923  4.88   54.1 1.94e-13 1.12e- 9 beta-xylosid ATBX
##  4     4 AT5G202 -1.13   4.26   48.3 3.69e-12 1.60e- 8 Raffinose sy DIN1
##  5     5 AT2G158 -0.831  5.10   41.2 1.39e-10 4.80e- 7 Leucine-rich LRX10
##  6     6 AT5G219 -1.15   3.76   40.3 2.21e-10 6.38e- 7 unknown prot <NA> 
##  7     7 AT5G615 -0.953  4.27   39.7 2.92e-10 7.23e- 7 Integrase-ty DEWA
##  8     8 AT2G259 -0.530  7.38   36.7 1.41e- 9 3.06e- 6 Zinc finger  ATCT
##  9     9 AT4G109  5.84   0.544  33.4 7.49e- 9 1.27e- 5 UDP-D-glucos UGE5 
## 10    10 AT2G158 -0.739  5.75   33.3 7.73e- 9 1.27e- 5 maternal eff CBP1
## #  with 65 more rows
## 
## $DEgenes.myc234.49h.rCol.rH
## # A tibble: 893 x 10
##       X1 gene_id logFC.gtmyc234 logFC.gtmyc234. logCPM    LR    PValue
##    <dbl> <chr>            <dbl>            <dbl>  <dbl> <dbl>     <dbl>
##  1     1 AT3G01          -8.38           0.449    6.28 4591. 0.       
##  2     2 AT1G16          -7.63          -0.0606   6.85 1179. 1.09e-256
##  3     3 AT2G43          -5.17          -0.612    6.88 1160. 1.02e-252
##  4     4 AT5G23          -4.02          -1.00     7.05 1015. 4.02e-221
##  5     5 AT3G19          -7.23           0.661    5.75  982. 7.28e-214
##  6     6 AT5G14          -4.40          -0.659    6.63  921. 1.01e-200
##  7     7 AT4G13          -4.49          -0.486    6.63  877. 4.37e-191
##  8     8 AT2G30          -3.26          -0.454    8.47  855. 2.28e-186
##  9     9 AT3G02          -6.70           0.620    5.18  824. 1.22e-179
## 10    10 AT3G58          -6.73          -0.496    5.52  723. 9.17e-158
## #  with 883 more rows, and 3 more variables: FDR <dbl>,
## #   description <chr>, name <chr>
## 
## $DEgenes.myc234.49h.rH
## # A tibble: 195 x 9
##       X1 gene_id   logFC logCPM    LR   PValue      FDR description   name 
##    <dbl> <chr>     <dbl>  <dbl> <dbl>    <dbl>    <dbl> <chr>         <chr>
##  1     1 AT5G366 -8.17   2.07  124.  7.49e-29 1.30e-24 RING/FYVE/PH <NA> 
##  2     2 AT1G299 -4.86   1.98   86.8 1.22e-20 1.06e-16 conserved pe <NA> 
##  3     3 AT1G233 -0.705  6.92   75.1 4.47e-18 2.58e-14 Kelch repeat KFB  
##  4     4 AT5G404 -0.613  8.26   57.3 3.71e-14 1.61e-10 unknown prot RBB1 
##  5     5 AT3G100 -0.632  6.19   47.3 6.07e-12 2.10e- 8 unknown prot <NA> 
##  6     6 AT5G139  0.831  6.52   45.6 1.46e-11 4.21e- 8 Chalcone and ATCH
##  7     7 AT5G505 -6.76   0.838  44.1 3.10e-11 7.67e- 8 SUMO-activat AT-S
##  8     8 AT4G109 -6.70   0.832  43.6 3.95e-11 8.56e- 8 UDP-D-glucos UGE5 
##  9     9 AT5G497 -0.557  7.26   42.8 6.21e-11 1.20e- 7 ferric reduc ATFR
## 10    10 AT1G180 -6.71   0.867  42.1 8.81e-11 1.53e- 7 Major facili <NA> 
## #  with 185 more rows
…
#
cpm.wide <- bind_cols(tibble(gene_id=rownames(log2_cpm)),as_tibble(log2_cpm)) 
cpm.wide

## # A tibble: 17,328 x 33
##    gene_id Col_1h_H_R1 Col_1h_H_R2 Col_1h_H_R3 Col_1h_H_R4 Col_1h_L_R1
##    <chr>         <dbl>       <dbl>       <dbl>       <dbl>       <dbl>
##  1 AT1G01        1.88        1.55        1.86       0.350        1.64
##  2 AT1G01        3.95        3.68        3.95       3.44         4.07
##  3 AT1G01        3.70        3.21        2.96       2.63         3.90
##  4 AT1G01        5.84        5.85        6.22       6.20         5.79
##  5 AT1G01        2.91        2.90        2.54       3.40         3.35
##  6 AT1G01        1.68        1.80        1.94       1.90         2.31
##  7 AT1G01        2.30        2.36        1.66       1.55         1.64
##  8 AT1G01        6.35        6.27        6.40       6.44         6.39
##  9 AT1G01        8.00        7.83        7.87       7.90         7.76
## 10 AT1G01        9.12        9.15        8.92       8.90         8.86
## #  with 17,318 more rows, and 27 more variables: Col_1h_L_R2 <dbl>,
## #   Col_1h_L_R3 <dbl>, Col_1h_L_R4 <dbl>, Col_49h_H_R1 <dbl>,
## #   Col_49h_H_R2 <dbl>, Col_49h_H_R3 <dbl>, Col_49h_H_R4 <dbl>,
## #   Col_49h_L_R1 <dbl>, Col_49h_L_R2 <dbl>, Col_49h_L_R3 <dbl>,
## #   Col_49h_L_R4 <dbl>, myc234_1h_H_R1 <dbl>, myc234_1h_H_R2 <dbl>,
## #   myc234_1h_H_R3 <dbl>, myc234_1h_H_R4 <dbl>, myc234_1h_L_R1 <dbl>,
## #   myc234_1h_L_R2 <dbl>, myc234_1h_L_R3 <dbl>, myc234_1h_L_R4 <dbl>,
## #   myc234_49h_H_R1 <dbl>, myc234_49h_H_R2 <dbl>, myc234_49h_H_R3 <dbl>,
## #   myc234_49h_H_R4 <dbl>, myc234_49h_L_R1 <dbl>, myc234_49h_L_R2 <dbl>,
…
