…
## Warning: Missing column names filled in: 'X1' [1]

## Warning: Missing column names filled in: 'X1' [1]

## Warning: Missing column names filled in: 'X1' [1]
```

```r
names(DEG.list)<-gsub(".csv","",DEG.objs)
DEG.list
```

```
## $DEgenes.Col.1h.rH
## # A tibble: 151 x 9
##       X1 gene_id   logFC logCPM    LR   PValue      FDR description   name 
##    <dbl> <chr>     <dbl>  <dbl> <dbl>    <dbl>    <dbl> <chr>         <chr>
##  1     1 AT3G154… -1.40    5.34  87.1 1.01e-20 1.75e-16 Aluminium in… <NA> 
##  2     2 AT1G809… -1.13    4.75  61.7 3.95e-15 3.42e-11 Chaperone Dn… AtJ8…
##  3     3 AT5G202… -1.48    4.87  60.8 6.17e-15 3.56e-11 Raffinose sy… DIN1…
##  4     4 AT4G376… -2.32    2.56  60.0 9.45e-15 3.87e-11 BTB and TAZ … BT5  
##  5     5 AT2G158… -0.947   6.05  59.7 1.12e-14 3.87e-11 maternal eff… CBP1…
##  6     6 AT2G076…  4.20    3.16  58.0 2.64e-14 7.64e-11 Cytochrome c… <NA> 
##  7     7 AT4G398…  0.892   6.23  51.6 6.75e-13 1.67e- 9 myo-inositol… ATIP…
##  8     8 AT3G255…  6.69    1.09  47.7 4.86e-12 1.05e- 8 Adenosylmeth… SAMD…
##  9     9 AT1G050… -6.92    1.25  47.2 6.31e-12 1.14e- 8 dentin sialo… <NA> 
## 10    10 AT3G100… -1.00    6.36  47.1 6.59e-12 1.14e- 8 unknown prot… <NA> 
## # … with 141 more rows
## 
## $DEgenes.Col.49h.rH
## # A tibble: 196 x 9
##       X1 gene_id   logFC logCPM    LR   PValue      FDR description   name 
##    <dbl> <chr>     <dbl>  <dbl> <dbl>    <dbl>    <dbl> <chr>         <chr>
##  1     1 AT2G106… -4.80    2.30  89.8 2.66e-21 4.61e-17 transposable… <NA> 
##  2     2 AT5G139…  0.961   6.60  51.8 6.03e-13 5.23e- 9 Chalcone and… ATCH…
##  3     3 AT3G154… -0.950   5.31  43.9 3.51e-11 2.03e- 7 Aluminium in… <NA> 
##  4     4 AT1G757…  1.60    3.42  40.4 2.08e-10 9.01e- 7 GAST1 protei… GASA1
##  5     5 AT1G268… -1.16    4.08  38.5 5.59e-10 1.94e- 6 RING/U-box s… MPSR1
##  6     6 ATCG002… -0.885   7.91  36.9 1.26e- 9 3.65e- 6 photosystem … PSBD 
##  7     7 AT5G541… -1.27    3.63  36.4 1.58e- 9 3.90e- 6 protochlorop… PORA 
##  8     8 AT5G428…  1.68    3.65  35.6 2.41e- 9 5.23e- 6 dihydroflavo… DFR;…
##  9     9 AT5G523… -0.775   6.58  34.2 4.91e- 9 9.45e- 6 low-temperat… COR7…
## 10    10 AT2G425… -0.932   6.89  32.6 1.16e- 8 1.86e- 5 cold regulat… COR1…
## # … with 186 more rows
## 
## $DEgenes.myc234.1h.rCol.rH
## # A tibble: 518 x 10
##       X1 gene_id logFC.gtmyc234 logFC.gtmyc234.… logCPM    LR    PValue
##    <dbl> <chr>            <dbl>            <dbl>  <dbl> <dbl>     <dbl>
##  1     1 AT3G01…         -10.2            1.58     6.74 3576. 0.       
##  2     2 AT4G31…          -5.32          -1.47     4.68  732. 1.36e-159
##  3     3 AT1G16…          -6.48           0.0320   6.06  604. 6.61e-132
##  4     4 AT2G30…          -3.27          -0.153    8.29  585. 9.95e-128
##  5     5 AT3G19…          -6.71           0.480    5.49  559. 3.40e-122
##  6     6 AT3G02…          -6.24          -0.813    4.88  528. 1.73e-115
##  7     7 AT3G58…          -5.35          -0.883    5.03  488. 8.73e-107
##  8     8 AT5G14…          -4.21           0.161    6.08  454. 2.63e- 99
##  9     9 AT4G39…          -5.15          -0.199    4.76  424. 9.44e- 93
## 10    10 AT2G43…          -4.98          -0.443    6.16  418. 1.98e- 91
## # … with 508 more rows, and 3 more variables: FDR <dbl>,
## #   description <chr>, name <chr>
## 
## $DEgenes.myc234.1h.rH
## # A tibble: 75 x 9
##       X1 gene_id   logFC logCPM    LR   PValue      FDR description   name 
##    <dbl> <chr>     <dbl>  <dbl> <dbl>    <dbl>    <dbl> <chr>         <chr>
##  1     1 AT3G154… -1.19   5.06   76.4 2.30e-18 3.99e-14 Aluminium in… <NA> 
##  2     2 AT1G233… -0.972  6.68   72.4 1.72e-17 1.49e-13 Kelch repeat… KFB  
##  3     3 AT5G493… -0.923  4.88   54.1 1.94e-13 1.12e- 9 beta-xylosid… ATBX…
##  4     4 AT5G202… -1.13   4.26   48.3 3.69e-12 1.60e- 8 Raffinose sy… DIN1…
##  5     5 AT2G158… -0.831  5.10   41.2 1.39e-10 4.80e- 7 Leucine-rich… LRX10
##  6     6 AT5G219… -1.15   3.76   40.3 2.21e-10 6.38e- 7 unknown prot… <NA> 
##  7     7 AT5G615… -0.953  4.27   39.7 2.92e-10 7.23e- 7 Integrase-ty… DEWA…
##  8     8 AT2G259… -0.530  7.38   36.7 1.41e- 9 3.06e- 6 Zinc finger … ATCT…
##  9     9 AT4G109…  5.84   0.544  33.4 7.49e- 9 1.27e- 5 UDP-D-glucos… UGE5 
## 10    10 AT2G158… -0.739  5.75   33.3 7.73e- 9 1.27e- 5 maternal eff… CBP1…
## # … with 65 more rows
## 
## $DEgenes.myc234.49h.rCol.rH
## # A tibble: 893 x 10
##       X1 gene_id logFC.gtmyc234 logFC.gtmyc234.… logCPM    LR    PValue
##    <dbl> <chr>            <dbl>            <dbl>  <dbl> <dbl>     <dbl>
##  1     1 AT3G01…          -8.38           0.449    6.28 4591. 0.       
##  2     2 AT1G16…          -7.63          -0.0606   6.85 1179. 1.09e-256
##  3     3 AT2G43…          -5.17          -0.612    6.88 1160. 1.02e-252
##  4     4 AT5G23…          -4.02          -1.00     7.05 1015. 4.02e-221
##  5     5 AT3G19…          -7.23           0.661    5.75  982. 7.28e-214
##  6     6 AT5G14…          -4.40          -0.659    6.63  921. 1.01e-200
##  7     7 AT4G13…          -4.49          -0.486    6.63  877. 4.37e-191
##  8     8 AT2G30…          -3.26          -0.454    8.47  855. 2.28e-186
##  9     9 AT3G02…          -6.70           0.620    5.18  824. 1.22e-179
## 10    10 AT3G58…          -6.73          -0.496    5.52  723. 9.17e-158
## # … with 883 more rows, and 3 more variables: FDR <dbl>,
## #   description <chr>, name <chr>
## 
## $DEgenes.myc234.49h.rH
## # A tibble: 195 x 9
##       X1 gene_id   logFC logCPM    LR   PValue      FDR description   name 
##    <dbl> <chr>     <dbl>  <dbl> <dbl>    <dbl>    <dbl> <chr>         <chr>
##  1     1 AT5G366… -8.17   2.07  124.  7.49e-29 1.30e-24 RING/FYVE/PH… <NA> 
##  2     2 AT1G299… -4.86   1.98   86.8 1.22e-20 1.06e-16 conserved pe… <NA> 
##  3     3 AT1G233… -0.705  6.92   75.1 4.47e-18 2.58e-14 Kelch repeat… KFB  
##  4     4 AT5G404… -0.613  8.26   57.3 3.71e-14 1.61e-10 unknown prot… RBB1 
##  5     5 AT3G100… -0.632  6.19   47.3 6.07e-12 2.10e- 8 unknown prot… <NA> 
##  6     6 AT5G139…  0.831  6.52   45.6 1.46e-11 4.21e- 8 Chalcone and… ATCH…
##  7     7 AT5G505… -6.76   0.838  44.1 3.10e-11 7.67e- 8 SUMO-activat… AT-S…
##  8     8 AT4G109… -6.70   0.832  43.6 3.95e-11 8.56e- 8 UDP-D-glucos… UGE5 
##  9     9 AT5G497… -0.557  7.26   42.8 6.21e-11 1.20e- 7 ferric reduc… ATFR…
## 10    10 AT1G180… -6.71   0.867  42.1 8.81e-11 1.53e- 7 Major facili… <NA> 
## # … with 185 more rows
## 
## $DEgenes.npr.1h.rCol.rH
## # A tibble: 1,581 x 10
##       X1 gene_id logFC.gtnpr logFC.gtnpr.trtL logCPM    LR    PValue
##    <dbl> <chr>         <dbl>            <dbl>  <dbl> <dbl>     <dbl>
##  1     1 AT2G48…       -7.06          -0.900    6.02 1531. 0.       
##  2     2 AT3G01…       -6.58          -1.56     6.74 2983. 0.       
##  3     3 AT3G42…        8.22           0.156    4.29 1100. 1.20e-239
##  4     4 AT1G63…       -1.70          -0.0279   7.26  514. 3.02e-112
##  5     5 AT5G35…        6.95          -0.990    2.67  454. 2.28e- 99
##  6     6 AT3G55…       -7.02           0.132    3.38  428. 1.28e- 93
##  7     7 AT1G53…       -3.04           0.253    5.26  332. 6.64e- 73
##  8     8 AT5G46…        2.71           0.373    3.75  306. 3.11e- 67
##  9     9 AT5G28…        6.43           0.954    2.33  253. 9.21e- 56
## 10    10 AT1G18…        2.76          -0.245    4.90  238. 1.66e- 52
## # … with 1,571 more rows, and 3 more variables: FDR <dbl>,
## #   description <chr>, name <chr>
## 
## $DEgenes.npr.1h.rH
## # A tibble: 60 x 9
##       X1 gene_id   logFC logCPM    LR   PValue      FDR description   name 
##    <dbl> <chr>     <dbl>  <dbl> <dbl>    <dbl>    <dbl> <chr>         <chr>
##  1     1 ATCG010…  2.35    3.52  74.5 6.18e-18 1.07e-13 NADH:ubiquin… NDHG 
##  2     2 ATCG010…  1.74    4.49  56.9 4.69e-14 4.07e-10 NADH-Ubiquin… NDHD 
##  3     3 AT1G233… -1.07    5.82  54.1 1.90e-13 1.10e- 9 Kelch repeat… KFB  
##  4     4 AT2G076…  2.02    3.30  45.8 1.32e-11 5.70e- 8 Cytochrome c… <NA> 
##  5     5 AT2G158… -1.51    4.90  41.5 1.19e-10 4.12e- 7 Leucine-rich… LRX10
##  6     6 AT5G229… -1.30    4.29  39.6 3.19e-10 9.20e- 7 CHY-type/CTC… AtRZ…
##  7     7 AT5G247…  1.03    4.88  35.9 2.06e- 9 4.92e- 6 vegetative s… ATVS…
##  8     8 AT5G202… -1.36    4.25  35.7 2.27e- 9 4.92e- 6 Raffinose sy… DIN1…
##  9     9 AT3G154… -1.56    5.19  33.9 5.71e- 9 1.10e- 5 Aluminium in… <NA> 
## 10    10 AT3G197…  0.767   6.03  31.3 2.19e- 8 3.49e- 5 branched-cha… BCAT4
## # … with 50 more rows
## 
## $DEgenes.npr.49h.rCol.rH
## # A tibble: 2,904 x 10
##       X1 gene_id logFC.gtnpr logFC.gtnpr.trtL logCPM    LR    PValue
##    <dbl> <chr>         <dbl>            <dbl>  <dbl> <dbl>     <dbl>
##  1     1 AT3G01…       -7.52           0.863    6.28 4092. 0.       
##  2     2 AT2G48…       -7.06           1.12     5.99 2573. 0.       
##  3     3 AT3G42…        6.84           4.01     3.82 1027. 1.03e-223
##  4     4 AT1G63…       -1.78          -0.410    7.12  728. 9.82e-159
##  5     5 AT1G53…       -3.86           1.80     4.76  449. 2.84e- 98
##  6     6 AT3G55…       -5.74          -0.542    3.18  392. 9.31e- 86
##  7     7 AT3G14…        1.57          -0.0471   7.71  316. 2.75e- 69
##  8     8 AT5G35…        5.77           0.893    2.62  245. 7.38e- 54
##  9     9 AT5G15…        2.49           0.501    3.62  212. 1.15e- 46
## 10    10 AT5G46…        2.76          -0.424    3.69  196. 2.15e- 43
## # … with 2,894 more rows, and 3 more variables: FDR <dbl>,
## #   description <chr>, name <chr>
## 
## $DEgenes.npr.49h.rH
## # A tibble: 69 x 9
##       X1 gene_id   logFC logCPM    LR   PValue      FDR description   name 
##    <dbl> <chr>     <dbl>  <dbl> <dbl>    <dbl>    <dbl> <chr>         <chr>
##  1     1 AT5G506…  7.56   1.68   71.6 2.67e-17 4.63e-13 Major facili… <NA> 
##  2     2 AT2G400…  5.66   2.19   63.8 1.41e-15 1.22e-11 unknown prot… <NA> 
##  3     3 AT2G052… -3.11   2.82   49.9 1.64e-12 9.49e- 9 DNAJ heat sh… <NA> 
##  4     4 AT2G431…  0.807  7.40   47.4 5.83e-12 2.52e- 8 isopropylmal… ATLE…
##  5     5 AT1G233… -0.943  6.29   31.2 2.37e- 8 8.21e- 5 Kelch repeat… KFB  
##  6     6 AT1G056… -1.55   3.50   29.9 4.47e- 8 1.12e- 4 Uridine diph… UGT7…
##  7     7 AT5G078… -3.62   1.90   29.9 4.51e- 8 1.12e- 4 conserved pe… <NA> 
##  8     8 AT1G136… -0.747  6.53   29.4 5.83e- 8 1.21e- 4 BEST Arabido… <NA> 
##  9     9 AT5G148…  3.67   0.952  29.3 6.30e- 8 1.21e- 4 transposable… <NA> 
## 10    10 AT5G159…  2.25   2.05   28.5 9.24e- 8 1.60e- 4 Adenosylmeth… SAMD…
## # … with 59 more rows
## 
## $DEgenes.sid.1h.rCol.rH
## # A tibble: 25 x 10
##       X1 gene_id logFC.gtsid logFC.gtsid.trtL logCPM     LR   PValue
##    <dbl> <chr>         <dbl>            <dbl>  <dbl>  <dbl>    <dbl>
##  1     1 AT3G01…      -8.09           -0.747   6.74  3308.  0.      
##  2     2 AT5G28…       5.30           -0.0535  2.33   118.  2.57e-26
##  3     3 AT3G14…       0.999          -0.0102  7.26   106.  7.55e-24
##  4     4 AT4G21…      -6.26           -0.588   0.442   83.2 8.66e-19
##  5     5 AT5G50…      -0.900          -0.178   4.71    71.8 2.55e-16
##  6     6 AT3G29…      -1.67           -0.182   2.00    42.5 5.77e-10
##  7     7 AT5G50…      -1.30            0.474   4.41    35.8 1.69e- 8
##  8     8 AT5G50…      -1.64            0.679   3.79    35.2 2.33e- 8
##  9     9 AT4G13…      -0.703           0.336   7.56    34.0 4.13e- 8
## 10    10 AT1G48…       0.800           0.0330  6.13    32.0 1.11e- 7
## # … with 15 more rows, and 3 more variables: FDR <dbl>, description <chr>,
## #   name <chr>
## 
## $DEgenes.sid.1h.rH
## # A tibble: 42 x 9
##       X1 gene_id   logFC logCPM    LR   PValue      FDR description   name 
##    <dbl> <chr>     <dbl>  <dbl> <dbl>    <dbl>    <dbl> <chr>         <chr>
##  1     1 AT2G249… -2.42   5.86  121.  3.25e-28 5.64e-24 unknown prot… <NA> 
##  2     2 AT5G366…  8.05   2.27  114.  1.10e-26 9.53e-23 RING/FYVE/PH… <NA> 
##  3     3 AT1G299…  6.14   2.11   51.0 9.47e-13 5.47e- 9 conserved pe… <NA> 
##  4     4 AT3G154… -1.13   5.84   41.2 1.40e-10 6.05e- 7 Aluminium in… <NA> 
##  5     5 AT5G505… -6.42   1.19   37.1 1.12e- 9 3.87e- 6 Major facili… <NA> 
##  6     6 AT2G338… -1.37   4.33   34.8 3.65e- 9 1.05e- 5 Dormancy/aux… AtDR…
##  7     7 AT2G158… -1.05   5.54   31.4 2.14e- 8 5.30e- 5 Leucine-rich… LRX10
##  8     8 AT5G159…  4.19   0.837  28.0 1.23e- 7 2.67e- 4 Adenosylmeth… SAMD…
##  9     9 ATCG010…  1.46   3.52   25.3 4.79e- 7 8.45e- 4 NADH:ubiquin… NDHG 
## 10    10 AT1G809… -0.870  4.96   25.3 4.88e- 7 8.45e- 4 Chaperone Dn… AtJ8…
## # … with 32 more rows
## 
## $DEgenes.sid.49h.rCol.rH
## # A tibble: 25 x 10
##       X1 gene_id logFC.gtsid logFC.gtsid.trtL  logCPM     LR   PValue
##    <dbl> <chr>         <dbl>            <dbl>   <dbl>  <dbl>    <dbl>
##  1     1 AT3G01…      -7.91           -0.647   6.28   4135.  0.      
##  2     2 AT3G14…       1.02            0.0773  7.71    148.  6.23e-33
##  3     3 AT5G28…       7.53           -2.91    2.19     69.3 8.81e-16
##  4     4 AT3G56…      -0.844           0.368   4.71     59.1 1.46e-13
##  5     5 AT5G50…      -0.972           0.0828  4.54     56.0 6.94e-13
##  6     6 AT4G21…      -4.70           -1.13   -0.0786   51.4 7.02e-12
##  7     7 AT4G04…      -2.45           -4.00    2.29     44.4 2.30e-10
##  8     8 AT4G07…      -0.687          -0.403   3.09     39.1 3.19e- 9
##  9     9 AT3G55…      -0.882           0.169   4.66     34.7 2.92e- 8
## 10    10 AT1G48…       0.671          -0.0609  6.75     29.1 4.82e- 7
## # … with 15 more rows, and 3 more variables: FDR <dbl>, description <chr>,
## #   name <chr>
## 
## $DEgenes.sid.49h.rH
## # A tibble: 116 x 9
##       X1 gene_id   logFC logCPM    LR   PValue      FDR description   name 
##    <dbl> <chr>     <dbl>  <dbl> <dbl>    <dbl>    <dbl> <chr>         <chr>
##  1     1 AT2G055… -1.90   3.53   73.9 8.39e-18 1.45e-13 Glycine-rich… <NA> 
##  2     2 AT5G505…  6.91   1.61   56.8 4.88e-14 4.23e-10 Major facili… <NA> 
##  3     3 AT1G757…  1.27   3.84   45.2 1.77e-11 1.02e- 7 GAST1 protei… GASA1
##  4     4 AT4G228…  0.983  5.14   37.6 8.62e-10 3.74e- 6 leucoanthocy… ANS;…
##  5     5 AT5G139…  0.765  6.74   35.0 3.23e- 9 1.02e- 5 Chalcone and… ATCH…
##  6     6 AT1G247… -5.76   0.534  34.9 3.52e- 9 1.02e- 5 UDP-3-O-acyl… AtLp…
##  7     7 AT3G575…  0.746  5.78   33.8 6.14e- 9 1.52e- 5 seed imbibit… AtSI…
##  8     8 AT3G228…  1.49   3.01   33.4 7.53e- 9 1.63e- 5 Chlorophyll … ELIP…
##  9     9 AT2G423… -0.723  5.22   29.3 6.05e- 8 1.17e- 4 Basic-leucin… ATBZ…
## 10    10 AT3G100… -0.667  6.41   28.4 9.78e- 8 1.69e- 4 unknown prot… <NA> 
## # … with 106 more rows
```
…
